数字电路课程设计/sawtooth/simulation/qsim/sawtooth.msim.vcd
$comment
	File created using the following command:
		vcd file sawtooth.msim.vcd -direction
$end
$date
	Tue Jul 14 08:10:22 2020
$end
$version
	ModelSim Version 10.3d
$end
$timescale
	1ps
$end

$scope module CNT5_vlg_vec_tst $end
$var reg 1 ! CLK $end
$var wire 1 " CO $end
$var wire 1 # sampler $end

$scope module i1 $end
$var wire 1 $ gnd $end
$var wire 1 % vcc $end
$var wire 1 & unknown $end
$var tri1 1 ' devclrn $end
$var tri1 1 ( devpor $end
$var tri1 1 ) devoe $end
$var wire 1 * CO~output_o $end
$var wire 1 + CLK~input_o $end
$var wire 1 , CLK~inputclkctrl_outclk $end
$var wire 1 - Q[1]~1_combout $end
$var wire 1 . Q~0_combout $end
$var wire 1 / Q~2_combout $end
$var wire 1 0 Equal0~0_combout $end
$var wire 1 1 Q [2] $end
$var wire 1 2 Q [1] $end
$var wire 1 3 Q [0] $end
$upscope $end
$upscope $end
$enddefinitions $end
#0
$dumpvars
0!
0"
x#
0$
1%
x&
1'
1(
1)
0*
0+
0,
0-
0.
1/
00
03
02
01
$end
#10000
1!
1+
0#
1,
13
0/
1-
#20000
0!
0+
1#
0,
#30000
1!
1+
0#
1,
03
12
1/
#40000
0!
0+
1#
0,
#50000
1!
1+
0#
1,
13
0/
1.
0-
#60000
0!
0+
1#
0,
#70000
1!
1+
0#
1,
03
11
02
10
0.
1*
1"
#80000
0!
0+
1#
0,
#90000
1!
1+
0#
1,
01
00
1/
0*
0"
#100000
0!
0+
1#
0,
#110000
1!
1+
0#
1,
13
0/
1-
#120000
0!
0+
1#
0,
#130000
1!
1+
0#
1,
03
12
1/
#140000
0!
0+
1#
0,
#150000
1!
1+
0#
1,
13
0/
1.
0-
#160000
0!
0+
1#
0,
#170000
1!
1+
0#
1,
03
11
02
10
0.
1*
1"
#180000
0!
0+
1#
0,
#190000
1!
1+
0#
1,
01
00
1/
0*
0"
#200000
0!
0+
1#
0,
#210000
1!
1+
0#
1,
13
0/
1-
#220000
0!
0+
1#
0,
#230000
1!
1+
0#
1,
03
12
1/
#240000
0!
0+
1#
0,
#250000
1!
1+
0#
1,
13
0/
1.
0-
#260000
0!
0+
1#
0,
#270000
1!
1+
0#
1,
03
11
02
10
0.
1*
1"
#280000
0!
0+
1#
0,
#290000
1!
1+
0#
1,
01
00
1/
0*
0"
#300000
0!
0+
1#
0,
#310000
1!
1+
0#
1,
13
0/
1-
#320000
0!
0+
1#
0,
#330000
1!
1+
0#
1,
03
12
1/
#340000
0!
0+
1#
0,
#350000
1!
1+
0#
1,
13
0/
1.
0-
#360000
0!
0+
1#
0,
#370000
1!
1+
0#
1,
03
11
02
10
0.
1*
1"
#380000
0!
0+
1#
0,
#390000
1!
1+
0#
1,
01
00
1/
0*
0"
#400000
0!
0+
1#
0,
#410000
1!
1+
0#
1,
13
0/
1-
#420000
0!
0+
1#
0,
#430000
1!
1+
0#
1,
03
12
1/
#440000
0!
0+
1#
0,
#450000
1!
1+
0#
1,
13
0/
1.
0-
#460000
0!
0+
1#
0,
#470000
1!
1+
0#
1,
03
11
02
10
0.
1*
1"
#480000
0!
0+
1#
0,
#490000
1!
1+
0#
1,
01
00
1/
0*
0"
#500000
0!
0+
1#
0,
#510000
1!
1+
0#
1,
13
0/
1-
#520000
0!
0+
1#
0,
#530000
1!
1+
0#
1,
03
12
1/
#540000
0!
0+
1#
0,
#550000
1!
1+
0#
1,
13
0/
1.
0-
#560000
0!
0+
1#
0,
#570000
1!
1+
0#
1,
03
11
02
10
0.
1*
1"
#580000
0!
0+
1#
0,
#590000
1!
1+
0#
1,
01
00
1/
0*
0"
#600000
0!
0+
1#
0,
#610000
1!
1+
0#
1,
13
0/
1-
#620000
0!
0+
1#
0,
#630000
1!
1+
0#
1,
03
12
1/
#640000
0!
0+
1#
0,
#650000
1!
1+
0#
1,
13
0/
1.
0-
#660000
0!
0+
1#
0,
#670000
1!
1+
0#
1,
03
11
02
10
0.
1*
1"
#680000
0!
0+
1#
0,
#690000
1!
1+
0#
1,
01
00
1/
0*
0"
#700000
0!
0+
1#
0,
#710000
1!
1+
0#
1,
13
0/
1-
#720000
0!
0+
1#
0,
#730000
1!
1+
0#
1,
03
12
1/
#740000
0!
0+
1#
0,
#750000
1!
1+
0#
1,
13
0/
1.
0-
#760000
0!
0+
1#
0,
#770000
1!
1+
0#
1,
03
11
02
10
0.
1*
1"
#780000
0!
0+
1#
0,
#790000
1!
1+
0#
1,
01
00
1/
0*
0"
#800000
0!
0+
1#
0,
#810000
1!
1+
0#
1,
13
0/
1-
#820000
0!
0+
1#
0,
#830000
1!
1+
0#
1,
03
12
1/
#840000
0!
0+
1#
0,
#850000
1!
1+
0#
1,
13
0/
1.
0-
#860000
0!
0+
1#
0,
#870000
1!
1+
0#
1,
03
11
02
10
0.
1*
1"
#880000
0!
0+
1#
0,
#890000
1!
1+
0#
1,
01
00
1/
0*
0"
#900000
0!
0+
1#
0,
#910000
1!
1+
0#
1,
13
0/
1-
#920000
0!
0+
1#
0,
#930000
1!
1+
0#
1,
03
12
1/
#940000
0!
0+
1#
0,
#950000
1!
1+
0#
1,
13
0/
1.
0-
#960000
0!
0+
1#
0,
#970000
1!
1+
0#
1,
03
11
02
10
0.
1*
1"
#980000
0!
0+
1#
0,
#990000
1!
1+
0#
1,
01
00
1/
0*
0"
